{
  "response": [
    {
      "datetime": "1549584000",
      "filename": "Viper-cedric-20190208-v6.1-OFFICIAL.zip",
      "id": "131dfbb48bac46179285223fd80f14a5",
      "romtype": "OFFICIAL",
      "size": 659919107,
      "url": "https://master.dl.sourceforge.net/project/viper-project/cedric/Viper-cedric-20190208-v6.1-OFFICIAL.zip",
      "version": "v6.1"
    }
  ]
}
